<?xml version="1.0" encoding="utf-8"?>
<!-- Generator: Adobe Illustrator 24.1.2, SVG Export Plug-In . SVG Version: 6.00 Build 0)  -->
<svg version="1.1" id="Layer_1" xmlns="http://www.w3.org/2000/svg" xmlns:xlink="http://www.w3.org/1999/xlink" x="0px" y="0px"
	 viewBox="0 0 283.5 283.5" style="enable-background:new 0 0 283.5 283.5;" xml:space="preserve">
<style type="text/css">
	.st0{fill:#F47920;}
	.st1{fill:#FFFFFF;}
</style>
<g>
	<g>
		<g>
			<g>
				<path class="st0" d="M258,211.5c18.5-30.8,23.8-67,15-101.9c-8.8-34.9-30.6-64.2-61.4-82.7c-30.8-18.5-67-23.8-101.9-15
					S45.5,42.4,27,73.3s-23.8,67-15,101.9c8.8,34.9,30.6,64.2,61.4,82.7c30.8,18.5,67,23.8,101.9,15
					C210.2,264.2,239.5,242.3,258,211.5z"/>
			</g>
		</g>
	</g>
	<g>
		<g>
			<g>
				<path d="M84.3,102c4,0.5,7.8,1.7,11.2,3.8c2.9,1.7,5.7,3.6,8.4,5.7c3.7,3,7,6.5,9.9,10.3c2.4,3.2,4.6,6.5,7,9.6
					c1.5,1.9,1.8,2.2,4,0.3c3.6-3,6.6-6.6,9.2-10.5c3-4.4,5.7-9,8.7-13.4c2.3-3.5,4.6-7,7.2-10.3c5.3-6.9,12.3-11.1,21.1-11.8
					c4.3-0.3,8.4,0.6,12.3,2.7c3.4,1.9,6.5,4.1,9.4,6.8c0.9,0.8,1.6,1.8,2.4,2.7c0.5,0.6,0.4,1.1-0.2,1.7c-2.6,2.6-5.1,5.2-7.7,7.7
					c-2.8,2.8-5.6,5.6-8.4,8.5c-3,3.1-5.8,6.3-7,10.6c-0.9,3.2-1.9,6.3-2.7,9.5c-1.2,4.4-2.2,8.8-3.4,13.2c-0.7,2.8-1.4,5.6-2.2,8.4
					c-1.2,3.9-2.3,7.9-3.6,11.8c-1.6,4.8-3.3,9.6-4.9,14.3c-1,3.1-2.1,6.1-3,9.2c-0.6,1.9-1,3.8-1.2,5.7c-0.1,0.9,0.7,1.9,1.2,2.7
					c3,5.2,6.1,10.4,9.2,15.6c0.4,0.7,0.7,1.5,1.1,2.2c0.4,0.8,0.3,1.6-0.3,2.4c-4.4,6.1-9.1,12-15,16.6c-2.2,1.7-4.6,3-6.9,4.5
					c-3.8,2.4-7.4,4.9-11.3,7.1c-2.8,1.5-5.7,2.8-8.7,3.8c-3.9,1.4-7.9,2.4-11.9,3.7c-2,0.7-3.2-0.3-4.2-1.8
					c-3.2-4.8-6.4-9.5-9.4-14.4c-0.9-1.4-2.2-1.4-3.4-1.7c-4.5-1.2-9-2.1-13.4-3.4c-3.3-1-6.6-2.1-9.8-3.5c-4-1.7-7.8-3.6-11.6-5.6
					c-2.5-1.3-4.1-3.7-5.6-6c-2.7-4.2-5.3-8.5-7.2-13.1c-0.5-1.3-0.8-2.6-1.5-3.8c-0.6-1-1.5-1.7-2.4-2.5c-2.6-2.1-4.4-4.8-6.2-7.5
					c-1.9-3-3.7-6-4.7-9.4c-0.9-3-1.2-6-0.5-9.1c0.8-3.1,2.5-5.6,5.2-7.3c2.7-1.8,2.5-3.4,1.6-6c-1.2-3.4-1.2-6.8-0.1-10.2
					c1.1-3.1,3.1-5.5,5.9-7.1c2.7-1.5,3.4-3.8,3-6.5c-0.9-6.3,3.1-11.7,8.3-14.2c1.9-0.9,4-1.5,6.1-2.1c1.4-0.4,2.3-1.3,2.9-2.5
					c1.2-2.2,2.2-4.5,3.5-6.7c1.8-3.1,4.2-5.6,7.3-7.5c2.3-1.4,4.6-2.8,7.2-3.1C80.7,102.1,82.5,102.1,84.3,102z M121.5,144.9
					c-1.4-2-2.7-3.8-4-5.6c-3.5-4.7-7-9.5-10.7-14c-3.1-3.9-6.5-7.5-10.5-10.5c-3.1-2.4-6.4-4.5-10.3-5.2c-5.1-0.9-9.5,0.7-12.9,4.5
					c-1.4,1.6-2.4,3.5-3.4,5.3c-1.6,3.2-2.2,6.6-1.9,10.1c0.3,3.5,1.6,6.7,3.2,9.7c1.6,2.9,3.3,5.8,5.9,7.8c3.2,2.5,6.5,4.9,9.9,7.2
					c3.8,2.6,7.7,4.9,11.6,7.4c1,0.6,1.4,0.5,1.9-0.7c1.3-3.3,1.4-6.6,0.8-10c-0.7-4.2-3.2-7.4-6.2-10.2c-2.8-2.6-5.8-5-8.6-7.5
					c-1.6-1.5-3.1-3.1-3.6-5.4c-0.4-2.1-0.2-4.2,0.5-6.2c0.2-0.8,0.2-1.8,1.2-2c1-0.2,1.4,0.8,2,1.5c1.1,1.4,2.1,3,3.4,4.3
					c2.4,2.4,4.9,4.6,7.4,6.9c3.3,3,6.3,6.3,8.5,10.2c2.1,3.8,3.4,7.9,3.5,12.3c0,4.9-1.1,9.5-3.3,13.8c-0.6,1.1-1.3,2.2-2,3.2
					c-0.8,1.2-2,1.5-3,1c-1.6-0.9-2.2-0.5-2.4,1.3c-0.1,0.9,0,1.9-0.1,2.8c-0.7,4.2-2.2,8.2-4,12.1c-1,2.1-2,2-3.8,0.9
					c-0.7-0.4-1.6-0.7-2.4-1.1c-0.5,1.7-1,3.2-1.3,4.7c-0.7,3.6-2,6.8-3.8,10c-1.5,2.7-1.9,2-4.1,1.2c-0.1,0-0.2-0.1-0.3-0.2
					c-1.5-0.9-3.1-1.7-4.7-2.6c-0.4,1.2-0.7,2.3-1,3.4c-0.9,3.8-2.1,7.5-4.1,10.9c-0.9,1.5-2.1,2.4-3.1,2.1
					c-0.8-0.3-1.7-0.7-2.4-1.2c-3.4-2.1-6.8-4.3-10.2-6.4c-0.4-0.3-1.1-0.2-1.6-0.3c-0.1,0.1-0.1,0.3-0.2,0.4c0.6,1.2,1,2.4,1.7,3.6
					c1.2,2.1,2.3,4.2,4.4,5.6c4,2.8,8.5,4.5,13,6c3.7,1.3,7.6,2.3,11.4,3.3c4.5,1.1,9.1,2,13.6,3.1c0.6,0.2,1.4,0.6,1.7,1.1
					c2.9,4.3,5.6,8.6,8.5,12.9c0.9,1.4,2,3,4.1,2.4c2.7-0.7,5.3-1.4,7.9-2.3c5.5-1.9,10.6-4.8,15.5-8c7-4.6,13.2-9.9,18.2-16.6
					c0.6-0.8,1.1-1.7,0.7-2.8c-0.4-0.9-0.7-1.9-1.1-2.8c-2.1-4-4.1-7.9-6.3-11.8c-1.4-2.6-2.3-5.4-1.8-8.4c0.3-1.5,0.6-3,1-4.4
					c0.9-3,1.7-5.9,2.7-8.8c1.5-4.5,3.2-9.1,4.7-13.6c1-2.9,1.8-5.9,2.7-8.8c1.3-4.4,2.6-8.8,3.8-13.3c1-3.9,2-7.7,3-11.6
					c0.9-3.3,1.9-6.5,2.6-9.8c0.8-3.9,2.6-7.2,5.3-10c4.6-4.8,9.3-9.6,13.9-14.4c1.5-1.5,1.8-2-0.5-3.4c-1.7-1-3.5-1.8-5.3-2.5
					c-8.1-2.9-14.9-0.4-20.1,5.4c-2.7,3-4.5,6.5-6.5,10c-1.2,2-2.1,4.2-3.4,6.2c-2.6,4.1-5.3,8.3-8.2,12.3c-1.9,2.6-4.1,5-6.5,7.2
					C128.8,139.3,125.1,142,121.5,144.9z M91.5,175.5c-0.1-2-0.2-4-0.3-6c-0.1-1.9-0.9-3.3-2.4-4.4c-4.2-2.9-8.5-5.9-12.7-8.8
					c-2.3-1.6-4.7-3.1-6.3-5.4c-4.1-5.9-7.7-12-9.9-19c-0.4-1.3-1.1-1.7-2.4-1.4c-3.4,0.8-5.8,3.8-5.8,7.4c0,3.5,1.3,6.5,2.8,9.5
					c2.4,4.4,5,8.8,7.5,13.1c0.8,1.4,1.6,2.9,3.1,3.8c1,0.6,2,1.2,2.9,1.8c3,2,5.9,4.1,8.9,6.1c2.4,1.6,4.7,3.2,7.1,4.8
					c1.4,0.9,2.7,1.8,4.1,2.6c1.3,0.7,1.9,0.4,2.4-1C91,177.6,91.2,176.5,91.5,175.5z M80.3,188.2C80.3,188.2,80.3,188.2,80.3,188.2
					c0-0.3,0-0.5,0-0.8c0-1.9,0.2-3.7-1.8-5c-5.4-3.5-10.6-7.1-15.9-10.7c-0.8-0.6-1.7-1.2-2.3-2c-2.5-3.7-4.8-7.4-7.2-11.1
					c-1.6-2.4-3.2-4.7-5-6.9c-1.1-1.5-2.4-1.7-3.3-0.7c-0.9,1-1.7,2.2-2.2,3.5c-0.9,2.1-0.4,4.3,0.2,6.4c1.1,3.8,2.9,7.2,5,10.5
					c1.3,2,2.5,4.3,4.3,5.8c3.6,3,7.6,5.7,11.5,8.4c2.4,1.7,4.8,3.3,7.3,4.8c2.2,1.3,4.4,2.5,6.6,3.7c0.9,0.5,1.4,0.1,1.6-0.8
					C79.6,191.6,80,189.9,80.3,188.2z M66.3,198.6c-0.1,0-0.2,0-0.3,0c0.4-1.1,0-1.9-0.9-2.5c-4.3-3-8.6-5.8-12.9-8.9
					c-1.8-1.3-3.5-2.9-4.9-4.6c-2-2.4-3.7-5.1-5.5-7.6c-1.2-1.6-2.6-2-3.7-1c-1.8,1.8-2.8,3.9-2.6,6.5c0.3,4.3,2.4,7.9,4.9,11.3
					c2.6,3.5,6.4,5.6,9.9,8.1c1.9,1.4,3.9,2.7,6,4c2,1.3,4.1,2.4,6.2,3.6c0.9,0.5,1.5,0.2,1.7-0.7C65,204,65.7,201.3,66.3,198.6z"/>
				<path class="st1" d="M121.5,144.9c3.6-2.9,7.3-5.6,10.6-8.6c2.4-2.2,4.6-4.6,6.5-7.2c2.9-4,5.5-8.1,8.2-12.3
					c1.3-2,2.2-4.1,3.4-6.2c2-3.4,3.8-7,6.5-10c5.3-5.8,12-8.4,20.1-5.4c1.8,0.7,3.6,1.5,5.3,2.5c2.3,1.4,2,1.9,0.5,3.4
					c-4.7,4.8-9.3,9.5-13.9,14.4c-2.7,2.8-4.5,6.1-5.3,10c-0.7,3.3-1.7,6.6-2.6,9.8c-1,3.9-1.9,7.8-3,11.6
					c-1.2,4.4-2.5,8.9-3.8,13.3c-0.9,3-1.7,5.9-2.7,8.8c-1.5,4.5-3.2,9.1-4.7,13.6c-1,2.9-1.8,5.9-2.7,8.8c-0.4,1.5-0.7,2.9-1,4.4
					c-0.5,3,0.3,5.8,1.8,8.4c2.1,3.9,4.2,7.9,6.3,11.8c0.5,0.9,0.7,1.9,1.1,2.8c0.5,1.1-0.1,2-0.7,2.8c-5,6.7-11.2,12-18.2,16.6
					c-4.9,3.2-9.9,6.1-15.5,8c-2.6,0.9-5.3,1.6-7.9,2.3c-2.1,0.6-3.2-1-4.1-2.4c-2.9-4.3-5.6-8.6-8.5-12.9c-0.4-0.5-1.1-1-1.7-1.1
					c-4.5-1.1-9.1-2-13.6-3.1c-3.8-1-7.7-2-11.4-3.3c-4.5-1.6-9-3.3-13-6c-2-1.4-3.2-3.5-4.4-5.6c-0.7-1.1-1.1-2.4-1.7-3.6
					c0.1-0.1,0.1-0.3,0.2-0.4c0.5,0.1,1.2,0,1.6,0.3c3.4,2.1,6.8,4.3,10.2,6.4c0.8,0.5,1.6,0.9,2.4,1.2c1,0.4,2.2-0.6,3.1-2.1
					c2-3.4,3.2-7.1,4.1-10.9c0.3-1.1,0.6-2.2,1-3.4c1.6,0.9,3.2,1.8,4.7,2.6c0.1,0.1,0.2,0.2,0.3,0.2c2.2,0.8,2.6,1.6,4.1-1.2
					c1.7-3.2,3.1-6.5,3.8-10c0.3-1.5,0.8-3,1.3-4.7c0.9,0.4,1.7,0.7,2.4,1.1c1.8,1,2.8,1.2,3.8-0.9c1.8-3.9,3.3-7.8,4-12.1
					c0.2-0.9,0-1.9,0.1-2.8c0.2-1.9,0.8-2.2,2.4-1.3c0.9,0.5,2.1,0.2,3-1c0.7-1,1.5-2.1,2-3.2c2.1-4.3,3.3-8.9,3.3-13.8
					c0-4.4-1.3-8.5-3.5-12.3c-2.2-3.9-5.1-7.2-8.5-10.2c-2.5-2.2-5-4.5-7.4-6.9c-1.3-1.3-2.2-2.8-3.4-4.3c-0.5-0.7-0.9-1.6-2-1.5
					c-1,0.2-1,1.2-1.2,2c-0.6,2-0.9,4-0.5,6.2c0.5,2.3,1.9,3.9,3.6,5.4c2.8,2.6,5.8,4.9,8.6,7.5c3,2.8,5.5,6,6.2,10.2
					c0.6,3.4,0.4,6.8-0.8,10c-0.4,1.1-0.9,1.3-1.9,0.7c-3.9-2.5-7.8-4.8-11.6-7.4c-3.4-2.3-6.7-4.7-9.9-7.2
					c-2.6-2.1-4.3-4.9-5.9-7.8c-1.6-3-2.9-6.2-3.2-9.7c-0.3-3.6,0.3-7,1.9-10.1c1-1.9,2-3.8,3.4-5.3c3.4-3.9,7.8-5.4,12.9-4.5
					c3.9,0.7,7.2,2.8,10.3,5.2c3.9,3.1,7.4,6.7,10.5,10.5c3.7,4.6,7.1,9.3,10.7,14C118.8,141.1,120,142.9,121.5,144.9z"/>
			</g>
			<path class="st1" d="M91.5,175.5c-0.3,1.1-0.5,2.1-0.8,3.1c-0.5,1.4-1.1,1.7-2.4,1c-1.4-0.8-2.8-1.7-4.1-2.6
				c-2.4-1.6-4.7-3.2-7.1-4.8c-3-2-5.9-4.1-8.9-6.1c-0.9-0.6-1.9-1.3-2.9-1.8c-1.5-0.9-2.3-2.4-3.1-3.8c-2.6-4.3-5.2-8.6-7.5-13.1
				c-1.6-2.9-2.8-6-2.8-9.5c0-3.6,2.4-6.6,5.8-7.4c1.3-0.3,2,0.1,2.4,1.4c2.1,6.9,5.7,13.1,9.9,19c1.6,2.3,4,3.8,6.3,5.4
				c4.2,2.9,8.4,5.9,12.7,8.8c1.5,1.1,2.3,2.5,2.4,4.4C91.3,171.5,91.4,173.5,91.5,175.5z"/>
			<path class="st1" d="M80.3,188.2c-0.4,1.7-0.7,3.4-1.1,5.1c-0.2,0.9-0.6,1.3-1.6,0.8c-2.2-1.2-4.5-2.4-6.6-3.7
				c-2.5-1.5-4.9-3.1-7.3-4.8c-3.9-2.7-7.9-5.3-11.5-8.4c-1.8-1.5-3-3.8-4.3-5.8c-2.1-3.3-3.9-6.7-5-10.5c-0.6-2.1-1-4.3-0.2-6.4
				c0.5-1.2,1.3-2.4,2.2-3.5c0.9-1,2.1-0.8,3.3,0.7c1.7,2.2,3.4,4.5,5,6.9c2.4,3.7,4.7,7.4,7.2,11.1c0.5,0.8,1.4,1.4,2.3,2
				c5.3,3.6,10.6,7.2,15.9,10.7c1.9,1.3,1.7,3.1,1.8,5C80.3,187.7,80.3,187.9,80.3,188.2C80.3,188.2,80.3,188.2,80.3,188.2z"/>
			<path class="st1" d="M66.3,198.6c-0.7,2.7-1.3,5.5-2,8.2c-0.2,0.9-0.8,1.3-1.7,0.7c-2.1-1.2-4.2-2.4-6.2-3.6c-2-1.3-4-2.6-6-4
				c-3.5-2.5-7.2-4.6-9.9-8.1c-2.5-3.3-4.6-7-4.9-11.3c-0.2-2.6,0.8-4.7,2.6-6.5c1-1,2.5-0.7,3.7,1c1.9,2.5,3.5,5.2,5.5,7.6
				c1.4,1.7,3.1,3.3,4.9,4.6c4.2,3.1,8.6,5.9,12.9,8.9c0.9,0.6,1.2,1.4,0.9,2.5C66.1,198.6,66.2,198.6,66.3,198.6z"/>
		</g>
		<g>
			<g>
				<path class="st1" d="M245.2,170.8l-5.9-1.1c5.1-26.8,0.1-54.4-14.1-77.8c-14.2-23.4-36.4-40.6-62.5-48.5l1.7-5.7
					c27.5,8.3,50.9,26.4,65.9,51.1C245.2,113.4,250.5,142.5,245.2,170.8z"/>
			</g>
			<g>
				<polygon class="st1" points="173.4,68.6 178.4,66 165.5,41.6 190.7,30.5 188.4,25.4 157.7,38.9 				"/>
			</g>
			<g>
				<polygon class="st1" points="221.9,148.5 226.5,145.3 242.1,168 263.6,150.7 267.1,155.1 240.9,176.1 				"/>
			</g>
		</g>
	</g>
</g>
</svg>
