<?xml version="1.0" encoding="utf-8"?>
<!-- Generator: Adobe Illustrator 24.1.2, SVG Export Plug-In . SVG Version: 6.00 Build 0)  -->
<svg version="1.1" id="Layer_1" xmlns="http://www.w3.org/2000/svg" xmlns:xlink="http://www.w3.org/1999/xlink" x="0px" y="0px"
	 viewBox="0 0 98.1 25.7" style="enable-background:new 0 0 98.1 25.7;" xml:space="preserve">
<style type="text/css">
	.st0{fill:#61ADDF;}
	.st1{fill:none;stroke:#939598;stroke-miterlimit:10;stroke-dasharray:3,5;}
	.st2{fill:#F36D21;}
</style>
<g>
	<g>
		<g>
			<path class="st0" d="M10.3,3.4c-3.7,0-6.8,3-6.8,6.8c0,4.7,6.1,11.5,6.3,11.8c0.2,0.3,0.7,0.3,0.9,0c0.3-0.3,6.3-7.1,6.3-11.8
				C17.1,6.4,14,3.4,10.3,3.4z M10.3,20.6c-2-2.4-5.6-7.2-5.6-10.4c0-3.1,2.5-5.6,5.6-5.6s5.6,2.5,5.6,5.6
				C15.9,13.4,12.3,18.2,10.3,20.6z"/>
		</g>
	</g>
	<g>
		<g>
			<path class="st0" d="M10.3,6.8c-1.9,0-3.4,1.5-3.4,3.4s1.5,3.4,3.4,3.4s3.4-1.5,3.4-3.4S12.2,6.8,10.3,6.8z M10.3,12.4
				c-1.2,0-2.2-1-2.2-2.2S9.1,8,10.3,8s2.2,1,2.2,2.2S11.5,12.4,10.3,12.4z"/>
		</g>
	</g>
</g>
<line class="st1" x1="20.3" y1="18.7" x2="78.8" y2="18.7"/>
<g>
	<g>
		<g>
			<path class="st2" d="M88.2,3.4c-3.7,0-6.8,3-6.8,6.8c0,4.7,6.1,11.5,6.3,11.8c0.2,0.3,0.7,0.3,0.9,0c0.3-0.3,6.3-7.1,6.3-11.8
				C95,6.4,91.9,3.4,88.2,3.4z M88.2,20.6c-2-2.4-5.6-7.2-5.6-10.4c0-3.1,2.5-5.6,5.6-5.6c3.1,0,5.6,2.5,5.6,5.6
				C93.7,13.4,90.2,18.2,88.2,20.6z"/>
		</g>
	</g>
	<g>
		<g>
			<path class="st2" d="M88.2,6.8c-1.9,0-3.4,1.5-3.4,3.4s1.5,3.4,3.4,3.4c1.9,0,3.4-1.5,3.4-3.4S90.1,6.8,88.2,6.8z M88.2,12.4
				c-1.2,0-2.2-1-2.2-2.2S87,8,88.2,8c1.2,0,2.2,1,2.2,2.2S89.4,12.4,88.2,12.4z"/>
		</g>
	</g>
</g>
</svg>
