<?xml version="1.0" encoding="utf-8"?>
<!-- Generator: Adobe Illustrator 24.1.2, SVG Export Plug-In . SVG Version: 6.00 Build 0)  -->
<svg version="1.1" id="Layer_1" xmlns="http://www.w3.org/2000/svg" xmlns:xlink="http://www.w3.org/1999/xlink" x="0px" y="0px"
	 viewBox="0 0 283.5 283.5" style="enable-background:new 0 0 283.5 283.5;" xml:space="preserve">
<style type="text/css">
	.st0{fill:#58595B;}
	.st1{fill:#2FA200;}
	.st2{fill:#FFFFFF;}
	.st3{fill:#F47920;}
	.st4{fill:#D03700;}
	.st5{fill:#00A3FF;}
	.st6{fill:none;stroke:#F47920;stroke-width:16;stroke-miterlimit:10;}
</style>
<g>
	<g>
		<path class="st1" d="M144.4,276.4c-30.4,0-60-10.4-83.8-29.3L4.4,265.9l19.4-64.3c-9.3-18.7-14-38.8-14-59.8
			C9.7,67.5,70.2,7.1,144.4,7.1S279,67.5,279,141.7S218.6,276.4,144.4,276.4z M65.2,231.6l2.4,2c21.5,18,48.7,27.8,76.8,27.8
			c66,0,119.7-53.7,119.7-119.7S210.4,22,144.4,22S24.7,75.7,24.7,141.7c0,19.4,4.5,37.9,13.4,55.1l1.1,2l-13.9,46.1L65.2,231.6z"/>
	</g>
	<g>
		<path class="st1" d="M73,108.5c0.7-10.8,5.1-18.8,11.4-25.9c3.3-3.8,7.1-7,11.6-9.3c3-1.5,6.1-2.6,9.5-2.4c0.7,0,1.4,0.3,1.9,0.7
			c7.2,6.2,14.3,12.4,20.6,19.5c1.9,2.1,3.7,4.3,4.5,7.1c1,3.2,0.3,6.3-0.8,9.3c-2,5.4-5.4,9.9-9.1,14.1c-1,1.2-2,2.3-3.1,3.3
			c-0.9,0.9-1.1,1.5-0.1,2.5c5.6,6.1,11.1,12.3,16.8,18.4c6.5,6.9,14.5,11.7,23.2,15.2c0.9,0.4,1.5,0.2,2.1-0.4
			c3.9-3.7,8.1-7,13.2-9.2c5.4-2.3,10.4-1.8,15.1,1.7c5.6,4.2,10.2,9.4,14.9,14.5c2.4,2.6,4.7,5.3,7,8c0.5,0.6,0.8,1.5,0.8,2.3
			c0.1,4.6-1.8,8.7-4.3,12.4c-6.3,9.2-14.8,15.5-25.5,18.8c-5.2,1.6-10.5,1.3-15.7-0.1c-12.4-3.3-23.6-9.3-34.4-16.1
			c-10-6.3-19.5-13.2-27.3-22.1c-9.8-11.2-17.9-23.6-24.5-37c-2.8-5.8-5.3-11.6-6.8-17.9C73.4,113.1,73.2,110.2,73,108.5z
			 M175.8,200.6c1.4-0.3,3.6-0.6,5.7-1.3c6.8-2.3,12.4-6.4,16.9-11.9c1.6-1.9,2.7-4.3,3.9-6.5c0.2-0.3,0.1-1.1-0.2-1.4
			c-5.3-5.7-10.6-11.4-16.1-16.9c-3.9-3.9-6-3.3-10.1-0.8c-4.3,2.6-7.9,5.9-11.2,9.6c-0.8,0.9-1.6,1.3-2.8,0.8c-1-0.4-2-0.7-3.1-1
			c-9.5-3.3-18.2-8.1-25.7-14.8c-8.4-7.6-15.9-15.9-22.8-24.9c-1.5-2-2.9-4-3.4-6.5c-0.2-0.8-0.1-1.3,0.5-1.9
			c1.3-1.2,2.7-2.4,3.9-3.7c4.3-4.3,8.2-8.9,11.1-14.3c1.4-2.6,1.2-4.7-0.9-6.8c-5.2-5.1-10.3-10.2-15.6-15.2
			c-3-2.8-3.2-2.8-6.7-0.5c-6.3,4-10.8,9.6-14.1,16.3c-2.1,4.3-3,8.8-1.9,13.5c1.1,4.5,2.6,9,4.5,13.3c4.4,10.1,10.2,19.4,16.6,28.4
			c5,7,10.5,13.6,17.2,19c12.6,10.3,26.4,18.8,41.7,24.7C166.9,199.2,170.8,200.3,175.8,200.6z"/>
	</g>
</g>
</svg>
